{
	"info": {
		"_postman_id": "26da047d-ac28-446f-ad55-2c3039a00033",
		"name": "camul",
		"schema": "https://schema.getpostman.com/json/collection/v2.1.0/collection.json"
	},
	"item": [
		{
			"name": "Create a new user",
			"event": [
				{
					"listen": "prerequest",
					"script": {
						"id": "e6e31804-5320-4edb-a0d7-caa2effe9279",
						"exec": [
							""
						],
						"type": "text/javascript"
					}
				},
				{
					"listen": "test",
					"script": {
						"id": "17367ace-a465-4e40-93df-5339cb9d9a16",
						"exec": [
							"pm.test(\"Status code is 201\", function () {",
							"    pm.response.to.have.status(201);",
							"});",
							"",
							"var obj = pm.response.json();",
							"",
							"pm.environment.set(\"uidUser\", obj.uid);"
						],
						"type": "text/javascript"
					}
				}
			],
			"request": {
				"method": "POST",
				"header": [
					{
						"key": "Content-Type",
						"name": "Content-Type",
						"value": "application/json",
						"type": "text"
					}
				],
				"body": {
					"mode": "raw",
					"raw": "{\n    \"email\": \"pedro.miller.pinho@gmail.com\",\n    \"password\": \"password\",\n    \"phone\": \"+351919671254\",\n    \"name\": \"Pedro Pinho\",\n    \"photo\": \"https://cdn.business2community.com/wp-content/uploads/2017/08/blank-profile-picture-973460_640.png\",\n    \"birthDate\": \"10/06/1998\",\n    \"country\": \"Portugal\",\n    \"type\": \"Administrator\"\n}",
					"options": {
						"raw": {
							"language": "json"
						}
					}
				},
				"url": {
					"raw": "http://localhost:1337/users",
					"protocol": "http",
					"host": [
						"localhost"
					],
					"port": "1337",
					"path": [
						"users"
					]
				}
			},
			"response": []
		},
		{
			"name": "Get an existing user",
			"event": [
				{
					"listen": "test",
					"script": {
						"id": "75607b86-20b4-4cc7-93c9-7be546ca8fa8",
						"exec": [
							"pm.test(\"Status code is 200\", function () {\r",
							"    pm.response.to.have.status(200);\r",
							"});\r",
							"\r",
							"var obj = pm.response.json();\r",
							"\r",
							"pm.test(\"Got right user\", function () {\r",
							"    pm.expect(obj[0].email).to.eql(\"api@figureout.com\");\r",
							"});"
						],
						"type": "text/javascript"
					}
				}
			],
			"request": {
				"method": "GET",
				"header": [],
				"url": {
					"raw": "http://localhost:1337/users/{{uidUser}}",
					"protocol": "http",
					"host": [
						"localhost"
					],
					"port": "1337",
					"path": [
						"users",
						"{{uidUser}}"
					]
				}
			},
			"response": []
		},
		{
			"name": "Update an existing user",
			"event": [
				{
					"listen": "test",
					"script": {
						"id": "c12622c4-603d-4d7e-8c41-482d0593e985",
						"exec": [
							"pm.test(\"Status code is 200\", function () {\r",
							"    pm.response.to.have.status(200);\r",
							"});\r",
							"\r",
							"var obj = pm.response.json();\r",
							"\r",
							"pm.test(\"Updated output\", function () {\r",
							"    pm.expect(obj.updated).to.eql(\"yes\");\r",
							"});"
						],
						"type": "text/javascript"
					}
				}
			],
			"request": {
				"method": "PUT",
				"header": [],
				"body": {
					"mode": "raw",
					"raw": "{\n\t\"displayName\": \"Pedro Miller Pinho\"\n}",
					"options": {
						"raw": {
							"language": "json"
						}
					}
				},
				"url": {
					"raw": "http://localhost:1337/users/{{uidUser}}",
					"protocol": "http",
					"host": [
						"localhost"
					],
					"port": "1337",
					"path": [
						"users",
						"{{uidUser}}"
					]
				}
			},
			"response": []
		},
		{
			"name": "Get an array of all users",
			"event": [
				{
					"listen": "test",
					"script": {
						"id": "851d10d4-f542-4329-8ef7-891b430a173d",
						"exec": [
							"pm.test(\"Status code is 200\", function () {\r",
							"    pm.response.to.have.status(200);\r",
							"});"
						],
						"type": "text/javascript"
					}
				}
			],
			"request": {
				"method": "GET",
				"header": [],
				"url": {
					"raw": "http://localhost:1337/users",
					"protocol": "http",
					"host": [
						"localhost"
					],
					"port": "1337",
					"path": [
						"users"
					]
				}
			},
			"response": []
		},
		{
			"name": "Translate text to text",
			"event": [
				{
					"listen": "test",
					"script": {
						"id": "3829e735-f801-4bc9-8e5c-cf59c199b52d",
						"exec": [
							"pm.test(\"Status code is 201\", function () {\r",
							"    pm.response.to.have.status(201);\r",
							"});\r",
							"\r",
							"var obj = pm.response.json();\r",
							"\r",
							"pm.test(\"Correct translation EN to PT\", function () {\r",
							"    pm.expect(obj.translation[0]).to.eql(\"A Grande Pirâmide de Gizé (também conhecida como Pirâmide de Khufu ou Pirâmide de Quéops) é a mais antiga e maior das três pirâmides do complexo da pirâmide de Gizé.\");\r",
							"});"
						],
						"type": "text/javascript"
					}
				}
			],
			"request": {
				"method": "POST",
				"header": [],
				"body": {
					"mode": "raw",
					"raw": "{\r\n  \"text\": \"The Great Pyramid of Giza (also known as the Pyramid of Khufu or the Pyramid of Cheops) is the oldest and largest of the three pyramids in the Giza pyramid complex.\",\r\n  \"source_language\": \"en\",\r\n  \"target_language\": \"pt\",\r\n  \"format\": \"text\"\r\n}",
					"options": {
						"raw": {
							"language": "json"
						}
					}
				},
				"url": {
					"raw": "http://localhost:1337/translations/text",
					"protocol": "http",
					"host": [
						"localhost"
					],
					"port": "1337",
					"path": [
						"translations",
						"text"
					]
				}
			},
			"response": []
		},
		{
			"name": "Save a new image",
			"event": [
				{
					"listen": "test",
					"script": {
						"id": "5d51f10a-ac4b-4297-9b0f-dd5bae7c1d37",
						"exec": [
							"pm.test(\"Status code is 200\", function () {",
							"    pm.response.to.have.status(200);",
							"});",
							"",
							"var obj = pm.response.json();",
							"",
							"pm.environment.set(\"imgName\", obj.fileName);"
						],
						"type": "text/javascript"
					}
				}
			],
			"request": {
				"method": "POST",
				"header": [],
				"body": {
					"mode": "formdata",
					"formdata": [
						{
							"key": "image",
							"type": "file",
							"src": "/C:/Users/flavi/Downloads/poem.jpeg"
						}
					],
					"options": {
						"formdata": {}
					}
				},
				"url": {
					"raw": "http://localhost:1337/images",
					"protocol": "http",
					"host": [
						"localhost"
					],
					"port": "1337",
					"path": [
						"images"
					]
				}
			},
			"response": []
		},
		{
			"name": "Get a stored image",
			"event": [
				{
					"listen": "test",
					"script": {
						"id": "969d96ea-3674-4368-9db4-c76b377e581f",
						"exec": [
							"pm.test(\"Status code is 200\", function () {",
							"    pm.response.to.have.status(200);",
							"});"
						],
						"type": "text/javascript"
					}
				}
			],
			"request": {
				"method": "GET",
				"header": [],
				"url": {
					"raw": "http://localhost:1337/images/{{imgName}}",
					"protocol": "http",
					"host": [
						"localhost"
					],
					"port": "1337",
					"path": [
						"images",
						"{{imgName}}"
					]
				}
			},
			"response": []
		},
		{
			"name": "Translate an image",
			"event": [
				{
					"listen": "test",
					"script": {
						"id": "fe18055f-f07f-49fc-9706-69fd4ccbedd8",
						"exec": [
							"pm.test(\"Status code is 201\", function () {\r",
							"    pm.response.to.have.status(201);\r",
							"});\r",
							"\r",
							"var obj = pm.response.json();\r",
							"\r",
							"pm.test(\"Correct image translation PT to EN\", function () {\r",
							"    pm.expect(obj.translation[0]).to.eql(\"TO BE BIG ...\\nTo be big, be whole: nothing\\nYours exaggerates or excludes.\\nBe all in everything. Put how much you are\\nAt least you do.\\nSo in every lake the whole moon\\nIt shines, because high lives.\\n(Ricardo Reis)\\n\");\r",
							"});"
						],
						"type": "text/javascript"
					}
				}
			],
			"request": {
				"method": "POST",
				"header": [],
				"body": {
					"mode": "raw",
					"raw": "{\n\t\"fileName\": \"{{imgName}}\",\n\t\"target_language\": \"en\"\n}",
					"options": {
						"raw": {
							"language": "json"
						}
					}
				},
				"url": {
					"raw": "http://localhost:1337/translations/image",
					"protocol": "http",
					"host": [
						"localhost"
					],
					"port": "1337",
					"path": [
						"translations",
						"image"
					]
				}
			},
			"response": []
		},
		{
			"name": "Create a mobile diary entry",
			"event": [
				{
					"listen": "test",
					"script": {
						"id": "b9b70afc-762f-4f90-a921-ff2fc99af4ca",
						"exec": [
							"pm.test(\"Status code is 201\", function () {",
							"    pm.response.to.have.status(201);",
							"});",
							"",
							"var obj = pm.response.json();",
							"",
							"pm.environment.set(\"idEntry\", obj.id);"
						],
						"type": "text/javascript"
					}
				}
			],
			"request": {
				"method": "POST",
				"header": [],
				"body": {
					"mode": "formdata",
					"formdata": [
						{
							"key": "title",
							"value": "Test Entry",
							"type": "text"
						},
						{
							"key": "description",
							"value": "This is a test diary entry",
							"type": "text"
						},
						{
							"key": "user",
							"value": "{{uidUser}}",
							"type": "text"
						},
						{
							"key": "file",
							"type": "file",
							"src": "/D:/MEMES/negerplantage.jpg"
						},
						{
							"key": "file",
							"type": "file",
							"src": "/D:/PRODUCING/lofi insano v2.wav"
						},
						{
							"key": "file",
							"type": "file",
							"src": "/C:/Users/Pedro Pinho/Desktop/ /ze manel.txt"
						}
					],
					"options": {
						"formdata": {}
					}
				},
				"url": {
					"raw": "http://localhost:1337/diary",
					"protocol": "http",
					"host": [
						"localhost"
					],
					"port": "1337",
					"path": [
						"diary"
					]
				}
			},
			"response": []
		},
		{
			"name": "Get a mobile diary entry",
			"event": [
				{
					"listen": "test",
					"script": {
						"id": "7e489cf7-c1c2-4711-b857-c18fad78b000",
						"exec": [
							"pm.test(\"Status code is 200\", function () {\r",
							"    pm.response.to.have.status(200);\r",
							"});\r",
							"\r",
							"var obj = pm.response.json();\r",
							"\r",
							"pm.test(\"Got right user\", function () {\r",
							"    pm.expect(obj.title).to.eql(\"Test Entry\");\r",
							"});"
						],
						"type": "text/javascript"
					}
				}
			],
			"request": {
				"method": "GET",
				"header": [],
				"url": {
					"raw": "http://localhost:1337/diary/{{idEntry}}",
					"protocol": "http",
					"host": [
						"localhost"
					],
					"port": "1337",
					"path": [
						"diary",
						"{{idEntry}}"
					]
				}
			},
			"response": []
		},
		{
			"name": "Get mobile diary entries by user id",
			"event": [
				{
					"listen": "test",
					"script": {
						"id": "ae2e05b4-8d31-4993-b764-d23abad6f692",
						"exec": [
							"pm.test(\"Status code is 200\", function () {",
							"    pm.response.to.have.status(200);",
							"});",
							"",
							"var obj = pm.response.json();",
							"var user = pm.environment.get(\"uidUser\");",
							"",
							"pm.test(\"Correct user in entry\", function () {",
							"    pm.expect(obj[0].user).to.eql(user);",
							"});"
						],
						"type": "text/javascript"
					}
				}
			],
			"request": {
				"method": "GET",
				"header": [],
				"url": {
					"raw": "http://localhost:1337/diary/user/{{uidUser}}",
					"protocol": "http",
					"host": [
						"localhost"
					],
					"port": "1337",
					"path": [
						"diary",
						"user",
						"{{uidUser}}"
					]
				}
			},
			"response": []
		},
		{
			"name": "Update an existing mobile diary entry",
			"event": [
				{
					"listen": "test",
					"script": {
						"id": "baf9c5e4-6904-4f1a-baed-c2d17f95768a",
						"exec": [
							"pm.test(\"Status code is 200\", function () {\r",
							"    pm.response.to.have.status(200);\r",
							"});\r",
							"\r",
							"var obj = pm.response.json();\r",
							"\r",
							"pm.test(\"Updated entry\", function () {\r",
							"    pm.expect(obj.updated).to.eql(\"yes\");\r",
							"});"
						],
						"type": "text/javascript"
					}
				}
			],
			"request": {
				"method": "PUT",
				"header": [],
				"body": {
					"mode": "raw",
					"raw": "{\n\t\"title\": \"Update Test 2\",\n\t\"description\": \"This is a test diary entry UPDATED 2\"\n}",
					"options": {
						"raw": {
							"language": "json"
						}
					}
				},
				"url": {
					"raw": "http://localhost:1337/diary/{{idEntry}}",
					"protocol": "http",
					"host": [
						"localhost"
					],
					"port": "1337",
					"path": [
						"diary",
						"{{idEntry}}"
					]
				}
			},
			"response": []
		},
		{
			"name": "Delete an existing mobile diary entry",
			"event": [
				{
					"listen": "test",
					"script": {
						"id": "f66a3c5e-caea-4ce8-a8a1-5c479089388f",
						"exec": [
							"pm.test(\"Status code is 200\", function () {\r",
							"    pm.response.to.have.status(200);\r",
							"});\r",
							"\r",
							"var obj = pm.response.json();\r",
							"\r",
							"pm.test(\"Deleted output\", function () {\r",
							"    pm.expect(obj.deleted).to.eql(\"yes\");\r",
							"});"
						],
						"type": "text/javascript"
					}
				}
			],
			"request": {
				"method": "DELETE",
				"header": [],
				"url": {
					"raw": "http://localhost:1337/diary/{{idEntry}}",
					"protocol": "http",
					"host": [
						"localhost"
					],
					"port": "1337",
					"path": [
						"diary",
						"{{idEntry}}"
					]
				}
			},
			"response": []
		},
		{
			"name": "Create a new log",
			"event": [
				{
					"listen": "test",
					"script": {
						"id": "e234a02f-eeba-47cb-8cf1-06a6851fd3fa",
						"exec": [
							"pm.test(\"Status code is 201\", function () {",
							"    pm.response.to.have.status(201);",
							"});",
							"",
							"var obj = pm.response.json();",
							"",
							"pm.environment.set(\"idLog\", obj.id);"
						],
						"type": "text/javascript"
					}
				}
			],
			"request": {
				"method": "POST",
				"header": [],
				"body": {
					"mode": "raw",
					"raw": "{\n\t\"latitude\": 37.2062767,\n\t\"longitude\": -122.113355,\n\t\"timestamp\": 1587589593000,\n\t\"user\": \"{{uidUser}}\"\n}",
					"options": {
						"raw": {
							"language": "json"
						}
					}
				},
				"url": {
					"raw": "http://localhost:1337/logs",
					"protocol": "http",
					"host": [
						"localhost"
					],
					"port": "1337",
					"path": [
						"logs"
					]
				}
			},
			"response": []
		},
		{
			"name": "Get an existing log",
			"event": [
				{
					"listen": "test",
					"script": {
						"id": "8c317889-ec68-4a87-ae7c-b2cb7629da9c",
						"exec": [
							"pm.test(\"Status code is 200\", function () {",
							"    pm.response.to.have.status(200);",
							"});",
							"",
							"var obj = pm.response.json();",
							"",
							"pm.test(\"Got right log\", function () {",
							"    pm.expect(obj._id).to.eql(\"5ea47bef4b0e8915601fa30a\");",
							"});"
						],
						"type": "text/javascript"
					}
				}
			],
			"request": {
				"method": "GET",
				"header": [],
				"url": {
					"raw": "http://localhost:1337/logs/{{idLog}}",
					"protocol": "http",
					"host": [
						"localhost"
					],
					"port": "1337",
					"path": [
						"logs",
						"{{idLog}}"
					]
				}
			},
			"response": []
		},
		{
			"name": "Delete an existing log",
			"event": [
				{
					"listen": "test",
					"script": {
						"id": "57618e9d-4b04-42fe-b861-155224d257ee",
						"exec": [
							"pm.test(\"Status code is 200\", function () {\r",
							"    pm.response.to.have.status(200);\r",
							"});\r",
							"\r",
							"var obj = pm.response.json();\r",
							"\r",
							"pm.test(\"Deleted output\", function () {\r",
							"    pm.expect(obj.deleted).to.eql(\"yes\");\r",
							"});"
						],
						"type": "text/javascript"
					}
				}
			],
			"request": {
				"method": "DELETE",
				"header": [],
				"url": {
					"raw": "http://localhost:1337/logs/{{idLog}}",
					"protocol": "http",
					"host": [
						"localhost"
					],
					"port": "1337",
					"path": [
						"logs",
						"{{idLog}}"
					]
				}
			},
			"response": []
		},
		{
			"name": "Creates a new notification token",
			"event": [
				{
					"listen": "test",
					"script": {
						"id": "c9aa941c-b278-45f4-97a1-65b095667443",
						"exec": [
							"pm.test(\"Status code is 200\", function () {\r",
							"    pm.response.to.have.status(200);\r",
							"});\r",
							""
						],
						"type": "text/javascript"
					}
				}
			],
			"request": {
				"method": "POST",
				"header": [],
				"body": {
					"mode": "raw",
					"raw": "{\n\t\"token\": \"ExponentPushToken[o1ejTLDjCO0saPekN2GB8x]\"\n}",
					"options": {
						"raw": {
							"language": "json"
						}
					}
				},
				"url": {
					"raw": "http://localhost:1337/notifications",
					"protocol": "http",
					"host": [
						"localhost"
					],
					"port": "1337",
					"path": [
						"notifications"
					]
				}
			},
			"response": []
		},
		{
			"name": "Sends a push notification to all users",
			"event": [
				{
					"listen": "test",
					"script": {
						"id": "3e480d36-ef15-4aca-9610-a55bdf0959b8",
						"exec": [
							"pm.test(\"Status code is 201\", function () {\r",
							"    pm.response.to.have.status(201);\r",
							"});\r",
							"\r",
							"var obj = pm.response.json();\r",
							"\r",
							"pm.test(\"Sent\", function () {\r",
							"    pm.expect(obj.sent).to.eql(\"ok\");\r",
							"});"
						],
						"type": "text/javascript"
					}
				}
			],
			"request": {
				"method": "POST",
				"header": [],
				"body": {
					"mode": "raw",
					"raw": "{\n\t\"message\": \"This is a push notification\"\n}",
					"options": {
						"raw": {
							"language": "json"
						}
					}
				},
				"url": {
					"raw": "http://localhost:1337/notifications/send",
					"protocol": "http",
					"host": [
						"localhost"
					],
					"port": "1337",
					"path": [
						"notifications",
						"send"
					]
				}
			},
			"response": []
		},
		{
			"name": "Send an email reminder",
			"event": [
				{
					"listen": "test",
					"script": {
						"id": "c039831a-1f3e-4990-9a2d-ddc868027603",
						"exec": [
							"pm.test(\"Status code is 201\", function () {\r",
							"    pm.response.to.have.status(201);\r",
							"});\r",
							"\r",
							"var obj = pm.response.json();\r",
							"\r",
							"pm.test(\"Sent from correct email\", function () {\r",
							"    pm.expect(obj.envelope.from).to.eql(\"noreply.figureout@gmail.com\");\r",
							"});"
						],
						"type": "text/javascript"
					}
				}
			],
			"request": {
				"method": "POST",
				"header": [],
				"body": {
					"mode": "raw",
					"raw": "{\n\t\"subject\": \"Do you need any translations?\",\n\t\"message\": \"<p>Don't forget to use our app. Come back for more translations whenever you need them! &nbsp; </p> Please use our app, like seriously.\"\n}",
					"options": {
						"raw": {
							"language": "json"
						}
					}
				},
				"url": {
					"raw": "http://localhost:1337/email/reminder",
					"protocol": "http",
					"host": [
						"localhost"
					],
					"port": "1337",
					"path": [
						"email",
						"reminder"
					]
				}
			},
			"response": []
		},
		{
			"name": "Delete an existing user",
			"event": [
				{
					"listen": "test",
					"script": {
						"id": "e8992e20-b42b-44dc-b6ee-5683ac45791d",
						"exec": [
							"pm.test(\"Status code is 200\", function () {\r",
							"    pm.response.to.have.status(200);\r",
							"});\r",
							"\r",
							"var obj = pm.response.json();\r",
							"\r",
							"pm.test(\"Deleted output\", function () {\r",
							"    pm.expect(obj.deleted).to.eql(\"yes\");\r",
							"});"
						],
						"type": "text/javascript"
					}
				}
			],
			"request": {
				"method": "DELETE",
				"header": [],
				"url": {
					"raw": "http://localhost:1337/users/{{uidUser}}",
					"protocol": "http",
					"host": [
						"localhost"
					],
					"port": "1337",
					"path": [
						"users",
						"{{uidUser}}"
					]
				}
			},
			"response": []
		}
	],
	"protocolProfileBehavior": {}
}